<svg xmlns="http://www.w3.org/2000/svg" xmlns:xlink="http://www.w3.org/1999/xlink" width="1073.991" height="404.179" viewBox="0 0 1073.991 404.179">
  <defs>
    <linearGradient id="linear-gradient" x1="0.243" y1="-0.195" x2="0.719" y2="-0.195" gradientUnits="objectBoundingBox">
      <stop offset="0" stop-color="#f3aa71"/>
      <stop offset="1" stop-color="#c7753e"/>
    </linearGradient>
    <linearGradient id="linear-gradient-2" x1="0" y1="0.5" x2="1" y2="0.5" xlink:href="#linear-gradient"/>
  </defs>
  <g id="Groupe_649" data-name="Groupe 649" transform="translate(-290.991 -7749.638)">
    <rect id="neb-16" width="585.368" height="357.408" transform="translate(548.371 7750.541)" fill="#ffebbe"/>
    <circle id="Ellipse_106" data-name="Ellipse 106" cx="89.198" cy="89.198" r="89.198" transform="translate(766.723 7826.746)" fill="#fcd07f"/>
    <circle id="Ellipse_107" data-name="Ellipse 107" cx="35.139" cy="35.139" r="35.139" transform="translate(701.852 8005.142)" fill="#a81b2d"/>
    <circle id="Ellipse_109" data-name="Ellipse 109" cx="35.139" cy="35.139" r="35.139" transform="translate(1042.427 7860.983)" fill="#8b0405"/>
    <circle id="Ellipse_108" data-name="Ellipse 108" cx="16.218" cy="16.218" r="16.218" transform="translate(583.822 7877.201)" fill="#fcdca1"/>
    <circle id="Ellipse_111" data-name="Ellipse 111" cx="9.01" cy="9.01" r="9.01" transform="translate(763.119 7817.736)" fill="#fff"/>
    <circle id="Ellipse_112" data-name="Ellipse 112" cx="9.01" cy="9.01" r="9.01" transform="translate(892.862 8036.677)" fill="#fff"/>
    <circle id="Ellipse_113" data-name="Ellipse 113" cx="9.01" cy="9.01" r="9.01" transform="translate(1103.695 7835.755)" fill="#fff"/>
    <circle id="Ellipse_110" data-name="Ellipse 110" cx="22.525" cy="22.525" r="22.525" transform="translate(933.407 8040.281)" fill="#ffbfbf"/>
    <rect id="Rectangle_138" data-name="Rectangle 138" width="171.189" height="358.218" transform="translate(354.97 7749.638)" fill="#ffebbe"/>
    <circle id="Ellipse_114" data-name="Ellipse 114" cx="21.624" cy="21.624" r="21.624" transform="translate(373.89 7928.558)" fill="#ffbfbf"/>
    <circle id="Ellipse_115" data-name="Ellipse 115" cx="41.446" cy="41.446" r="41.446" transform="translate(427.95 7957.39)" fill="#fcd07f"/>
    <circle id="Ellipse_118" data-name="Ellipse 118" cx="9.01" cy="9.01" r="9.01" transform="translate(496.425 7795.211)" fill="#fff"/>
    <circle id="Ellipse_119" data-name="Ellipse 119" cx="9.01" cy="9.01" r="9.01" transform="translate(377.494 8007.845)" fill="#fff"/>
    <circle id="Ellipse_120" data-name="Ellipse 120" cx="9.01" cy="9.01" r="9.01" transform="translate(469.396 8071.815)" fill="#fff"/>
    <rect id="Rectangle_139" data-name="Rectangle 139" width="171.189" height="358.218" transform="translate(1153.249 7750.539)" fill="#ffebbe"/>
    <circle id="Ellipse_116" data-name="Ellipse 116" cx="21.624" cy="21.624" r="21.624" transform="translate(1171.269 7856.479)" fill="#fcd07f"/>
    <circle id="Ellipse_117" data-name="Ellipse 117" cx="41.446" cy="41.446" r="41.446" transform="translate(1234.527 7953.784)" fill="#d84154"/>
    <circle id="Ellipse_121" data-name="Ellipse 121" cx="9.01" cy="9.01" r="9.01" transform="translate(1281.19 7804.221)" fill="#fff"/>
    <circle id="Ellipse_122" data-name="Ellipse 122" cx="9.01" cy="9.01" r="9.01" transform="translate(1166.768 8018.657)" fill="#fff"/>
    <circle id="Ellipse_123" data-name="Ellipse 123" cx="9.01" cy="9.01" r="9.01" transform="translate(1263.17 8071.815)" fill="#fff"/>
    <g id="Groupe_528" data-name="Groupe 528" transform="translate(290.991 7787.806)">
      <path id="Tracé_7986" data-name="Tracé 7986" d="M1068.915,795.677s34.538-18.17,91.37-40.656c60.83-24.068,85.521-30.9,86.875-31.351a6.22,6.22,0,0,1,5.24.264l2.554,1.706s-29.477,9.868-92.4,34.927c-36.26,14.44-91.635,40.012-91.635,40.012Z" transform="translate(-1066.838 -723.231)" fill="url(#linear-gradient)"/>
      <g id="Groupe_527" data-name="Groupe 527" transform="translate(0 47.959)">
        <g id="Groupe_526" data-name="Groupe 526">
          <g id="Groupe_525" data-name="Groupe 525" transform="translate(53.628)">
            <path id="Tracé_7987" data-name="Tracé 7987" d="M1137.288,823.638s.782,10.536-4.039,17.215c1.834.653,19.173,73.872,19.173,73.872l-35.229,9.155-20.915-77.242c-1.065-3.933-2.243-14.117,3.638-23S1137.288,823.638,1137.288,823.638Z" transform="translate(-1084.012 -638.449)"/>
            <g id="Groupe_524" data-name="Groupe 524">
              <g id="Groupe_523" data-name="Groupe 523">
                <path id="Tracé_7988" data-name="Tracé 7988" d="M1101.448,835.378c1.817,4.351,2.535,13.981,6.5,16.376,12.694,7.663,8.143,25.639,9.982,28.186a1.418,1.418,0,0,1,.252,1.062l-1.228,8.181a1.46,1.46,0,0,1-.178.516l-21.647,37.664a1.459,1.459,0,0,0,.708,2.089c7.117,2.885,36.56,14.7,40.533,14.3.851-.086,3.367-.314,6.905-.658l.713-.069c15.592-1.523,48.852-5.066,50.3-8.322,1.808-4.073-6.789-11.764-7.691-22.172s.9-33.934-7.694-40.269-4.975-17.645-4.524-23.529-10.406-53.39-19.908-57.011c-7.411-2.823-16.474-3.719-20.1-3.978-.867-.06-.917-.939-1.329-1.7-4.3-7.981,4.08-25.715.618-31.871-4.073-7.24-22.172-14.027-31.674-9.051-9.113,4.776-8.236,15.795-8.15,16.686a1.2,1.2,0,0,0,.021.126l2.115,10.645a1.463,1.463,0,0,1-.048.751l-2.039,6.114a1.474,1.474,0,0,0,.8,1.808l2.946,1.309a1.473,1.473,0,0,1,.855,1.107l1.97,4.054a5.207,5.207,0,0,0,1.811,3.172c.259.214,10.374-2.058,10.709-2.058l.665,5.629s-2-.086-7.445,2.547C1100.079,799.97,1101.074,834.479,1101.448,835.378Z" transform="translate(-1086.257 -743.415)"/>
                <g id="Groupe_522" data-name="Groupe 522" transform="translate(0 116.1)">
                  <path id="Tracé_7989" data-name="Tracé 7989" d="M1104.87,813.169l-1.357,9.051,60.678-18.418s-4.512-6.843-4.177-11.044S1104.87,813.169,1104.87,813.169Z" transform="translate(-1072.853 -792.275)" fill="#f3aa71"/>
                  <path id="Tracé_7990" data-name="Tracé 7990" d="M1136.748,811.039c-16.688,15.217-46.138,27.487-46.138,27.487s10.8,10.308,15.215,5.4,43.686-18.163,44.667-38.777S1136.748,811.039,1136.748,811.039Z" transform="translate(-1090.61 -785.36)" fill="#f3aa71"/>
                  <path id="Tracé_7991" data-name="Tracé 7991" d="M1127.215,816.213c-7.307,21.371-27.217,46.3-27.217,46.3s14.426,3.838,15.937-2.59,29.552-36.945,20.492-55.488S1127.215,816.213,1127.215,816.213Z" transform="translate(-1077.69 -783.802)" fill="#f3aa71"/>
                </g>
              </g>
              <path id="Tracé_7992" data-name="Tracé 7992" d="M1114.709,826.831s9.241,43.672,20.656,47.454c6.371,2.112-.57,2.927-.57,2.927s24.018,43.969,25.135,61.833c24.006,0,34.055,1.675,34.055,1.675s-13.958-68.11-32.38-84.3c-5.584-24.006-9.49-36.847-9.49-36.847Z" transform="translate(-1057.446 -638.607)"/>
              <path id="Tracé_7993" data-name="Tracé 7993" d="M1169.574,867.3s-.38,3.588,2.3,5.51,6.392,5.32,4.771,7.483-24.4,10.555-24.4,10.555l-14.126-1.4a5.731,5.731,0,0,1-2.21-.651c-2.485-1.317-8.255-4.569-6.028-5.32,2.806-.943,25.2-5.993,26.366-7.385s-1.5-7.124-1.5-7.124Z" transform="translate(-1037.26 -572.93)"/>
              <path id="Tracé_7994" data-name="Tracé 7994" d="M1129.742,858.421s.364,3.588,3.379,4.921,7.347,3.9,6.206,6.347c-.846,1.811-8.229,11.256-9.077,15.669a8.611,8.611,0,0,1-2.371,4.465l-4.344,4.037a5.341,5.341,0,0,1-4.577,1.124c-4.836-1.062-16.743,1.419-14.9-4.458.5-1.606,6.924-1.825,9.825-7.9,2.205-4.612,2.089-14.666,2.457-15.357.855-1.6-1.951-8.219-1.951-8.219Z" transform="translate(-1072.365 -585.147)"/>
            </g>
          </g>
          <path id="Tracé_7995" data-name="Tracé 7995" d="M1098.555,764.416a6.944,6.944,0,0,1-1.616-2.262s1.226-2.186.654-3.331-3.631-9.728-4.8-10.645c-.979-.77-4.263-2.229-5.415-2.193s-3.528.078-2.041,2.369c-2.716-2.132-6.111-2.98-4.8,2.31-.872-.546-3.2-2.058-3.887-.093a3.752,3.752,0,0,0,.214,3.172s-2.393-.644-3.082.627c-.659,1.217.553,3.094,1.055,3.59s-.012,1.6,1.461,3.184c1.5,1.6,7.086,9.082,9.873,8.181s4.246,4.916,4.246,4.916Z" transform="translate(-1060.391 -739.88)"/>
          <path id="Tracé_7996" data-name="Tracé 7996" d="M1089.13,772.573a6.917,6.917,0,0,1-.851-2.647s2.79-2.616,2.593-3.88-1.452-9.464-2.283-10.693c-.7-1.034-4.032-4.8-5.14-5.116s-2.735.378-2.017,3.011c-1.937-2.854-6.033-6.254-6.39-.815-.665-.787-2.621-2.965-3.878-1.3-1.188,1.573.561,4.676.561,4.676s-2.081-1.343-3.127-.34c-1,.958-.413,3.113-.088,3.738s-.5,1.526.425,3.479c.937,1.984,3.982,10.807,6.913,10.8s2.547,5.976,2.547,5.976Z" transform="translate(-1068.041 -734.977)"/>
        </g>
        <path id="Tracé_7997" data-name="Tracé 7997" d="M1146.977,784.586l-37.854-3.621-22.358-23.152L1069.7,770l31.8,35.76,53.348-4.2Z" transform="translate(-1065.753 -723.6)"/>
        <path id="Tracé_7998" data-name="Tracé 7998" d="M1171.868,780.56l-49.719-.791L1094.682,752.5l-16.517,15.759,38.495,33.88,64.156-11.229Z" transform="translate(-1054.108 -730.91)"/>
      </g>
    </g>
    <path id="Tracé_7999" data-name="Tracé 7999" d="M1097.229,745.318c14.915-3.379,30.18-2.326,53.34,1.359s29.476,4.21,31.054,2.105-5.613,13.511-15.089,16.317c-4.569,1.355-16.842,1.93-17.9,1.93s4.736,2.809,24.211.7,31.057-7.019,32.109-8.6-3.857,9.326-16.36,22.678c-2.59,2.763-7.5,10.134-21.714,10.134s-40.794-9.476-40.794-9.476l-10.265-7.368Z" transform="translate(-736.882 7092.35)"/>
    <g id="Groupe_512" data-name="Groupe 512" transform="translate(897.54 7829.251)">
      <g id="Groupe_511" data-name="Groupe 511">
        <path id="Tracé_7964" data-name="Tracé 7964" d="M469.7,920.028l-1.094,17.046a1.93,1.93,0,0,1-.243.611l-39.519,47.435a1.059,1.059,0,0,0-.247.659l3.2,98.227a1.065,1.065,0,0,0,1.078,1.083l37.067-.351a1.066,1.066,0,0,0,1.059-1.072l-5.773-83.347a1.06,1.06,0,0,1,.267-.712l7.639-8.642a.9.9,0,0,1,.783-.359c11.343,2.007,35.192-.728,35.192-.728a1.066,1.066,0,0,1,.82.362l9.877,11.237a1.059,1.059,0,0,1,.263.69l.734,82.22a1.066,1.066,0,0,0,1.1,1.054l37.091-1.056a1.063,1.063,0,0,0,1.036-1.078l-1.471-93.8a1.063,1.063,0,0,0-.251-.668l-35.647-51.1a1.075,1.075,0,0,1-.249-.734l.679-14.517a1.066,1.066,0,0,1,1.114-1.014c3.356.148,13.632.509,16.122-.421,2.99-1.116,5.606-5.952,5.606-8.183S534.9,852.129,532.2,851.024c-4.763-1.954-25.873-15.531-27.368-16.647-1.288-.961-.357-6.058-.075-7.458a1.028,1.028,0,0,1,.318-.56,16.112,16.112,0,0,0,2.746-3.886c1.87-3.349,5.606-37.572-12.329-39.06s-26.436,5.208-28.3,10.508c-1.021,2.9-1.963,14.415-.84,17.02.573,1.332-.32,3.634-1.327,5.568a2.732,2.732,0,0,0,2,3.978h0a1.053,1.053,0,0,1,.9.928c.344,3.239,1.769,15.194,4.029,15.194,1.758,0,4.36-.168,5.877-.278a1.062,1.062,0,0,1,1.14,1.131l-.249,3.747a1.062,1.062,0,0,1-.589.88L434.31,863.9a1.07,1.07,0,0,1-.948,0l-36.8-17.966a1.066,1.066,0,0,0-1.537.981l.684,25.845a1.045,1.045,0,0,0,.624.939c4.613,2.038,34.033,14.953,37.131,14.612,2.933-.324,23.481-8.569,28.692-10.673a1.065,1.065,0,0,1,1.447.785l3.482,18.032.013.082,2.6,23.3A1.045,1.045,0,0,1,469.7,920.028Z" transform="translate(-360.794 -783.202)"/>
        <path id="Tracé_7965" data-name="Tracé 7965" d="M460.736,916.315s2,5.431-.06,7.707-.611,6.27.8,8.217c1.118,1.539,15.716,10.816,22.31,14.318a6.75,6.75,0,0,0,5.773.262l8.457-3.588s.547-7.511-1.764-8.082-18.5-8.688-19.511-9.923-.234-8.464-.234-8.464Z" transform="translate(-282.91 -622.778)"/>
        <path id="Tracé_7966" data-name="Tracé 7966" d="M448.265,920.743s-1.2,3.418.8,5.98,4.591,6.832,2.6,8.541-35.53,4.911-35.53,4.911l-8.783-4.058s-3.193-3.63-.4-3.844S431.1,928,432.5,926.937s1.8-8.329,1.8-8.329Z" transform="translate(-347.808 -620.015)"/>
        <path id="Tracé_7967" data-name="Tracé 7967" d="M413.18,820.819a13.182,13.182,0,0,1-4.388-6.466c-.924-3.233.924-5.542-.229-6.236s-4.851,1.156-4.159,7.621c-3.694-1.153-15.357-4.732-19.319-5.087-1.38-.123-3.387-.481-3.6.584-.223,1.12,1.782,1.436,1.782,1.436s-3.109-.613-3.317.69c-.227,1.444,6.327,2.551,6.327,2.551s-6.316-1.934-6.754-.231c-.375,1.462,5.2,3.118,5.2,3.118s-3.475-2.342-3.938-.243c-.384,1.738,5.052,3.367,5.052,3.367s-3.275-1.045-3.674.185c-.271.838.673,1.391,1.773,2.06,1.764,1.074,10.949,8.2,19.553,10.047,1.579.34,5.542-.924,7.621-.695a24.235,24.235,0,0,0,4.386,0l.924-10.854Z" transform="translate(-379.502 -753.34)"/>
        <path id="Tracé_7968" data-name="Tracé 7968" d="M443.334,839.108c-1.815-.079-2.675-2.262-5.866-1.131-3.614,1.281-11.95-.8-13.3-.65s-.37,3.905,3.628,5.486c-3.665,1.327-9.787,3.142-13.178,5.275-1.182.741-3.008,1.68-2.529,2.664.5,1.034,2.3.064,2.3.064s-2.865,1.4-2.236,2.574c.7,1.3,6.624-1.811,6.624-1.811s-6.241,2.3-5.553,3.932c.589,1.4,6.064-.668,6.064-.668s-4.214.242-3.306,2.205c.754,1.627,6.1-.379,6.1-.379s-3.261,1.158-2.832,2.388c.293.836,1.389.7,2.677.569,2.068-.216,13.282-1.052,21.3-4.816,1.473-.69,3.308-4.033,5.114-5.114s4.465-2.512,4.465-2.512l-5.023-9.114Z" transform="translate(-340.323 -717.983)"/>
      </g>
      <path id="Tracé_7969" data-name="Tracé 7969" d="M429.7,847.4h52.86a1.739,1.739,0,0,1,1.729,1.932l-1.1,9.871a1.741,1.741,0,0,1-1.775,1.546l-51.764-1.4a1.74,1.74,0,0,1-1.694-1.74v-8.47A1.739,1.739,0,0,1,429.7,847.4Z" transform="translate(-321.099 -705.832)" fill="#393c96"/>
      <path id="Tracé_7970" data-name="Tracé 7970" d="M455.58,863.543c-16.885,15.394-46.684,27.81-46.684,27.81s10.927,10.43,15.4,5.464,44.2-18.376,45.193-39.234S455.58,863.543,455.58,863.543Z" transform="translate(-344.077 -703.133)" fill="#393c96"/>
      <path id="Tracé_7971" data-name="Tracé 7971" d="M445.7,869.013c-5.363,22.21-23.093,49.189-23.093,49.189s14.892,2.518,15.813-4.1,26.321-39.98,15.461-57.815S445.7,869.013,445.7,869.013Z" transform="translate(-327.554 -701.857)" fill="#393c96"/>
    </g>
    <g id="Groupe_514" data-name="Groupe 514" transform="translate(568.971 7829.251)">
      <path id="Tracé_7972" data-name="Tracé 7972" d="M816.8,532.833a13.055,13.055,0,0,0,2.332-7.381c-.041-3.332-2.452-5-1.551-5.981s4.934-.284,6.112,6.048c3.181-2.147,13.245-8.858,16.907-10.322,1.277-.509,3.081-1.418,3.586-.468.53,1-1.282,1.868-1.282,1.868s2.78-1.464,3.343-.287c.627,1.305-5.285,4.218-5.285,4.218s5.451-3.629,6.352-2.14c.771,1.28-4.052,4.435-4.052,4.435s2.639-3.209,3.673-1.351c.857,1.541-3.842,4.632-3.842,4.632s2.813-1.922,3.542-.87c.5.716-.246,1.512-1.1,2.459-1.372,1.52-8.075,10.89-15.722,15.087-1.405.773-5.526.7-7.435,1.51a23.991,23.991,0,0,1-4.167,1.246L814.255,535.5Z" transform="translate(-609.436 -461.139)"/>
      <path id="Tracé_7973" data-name="Tracé 7973" d="M749.848,553c1.264,1.413,3.5.594,4.758,3.965,1.42,3.818,8.546,9.129,9.326,10.324s-2.736,3.015-6.6.873c1.42,3.89,4.095,10.112,4.719,14.343.217,1.472.711,3.6-.358,3.9-1.124.312-1.579-1.82-1.579-1.82s.832,3.3-.481,3.6c-1.454.335-3.012-6.629-3.012-6.629s2.385,6.657.681,7.233c-1.461.494-3.514-5.38-3.514-5.38s2.61,3.583.507,4.213c-1.743.519-3.76-5.208-3.76-5.208s1.28,3.447.054,3.952c-.832.346-1.459-.635-2.211-1.771-1.211-1.827-8.016-11.494-10.463-20.605-.451-1.677.885-5.485.512-7.7s-1.044-5.362-1.044-5.362l10.3-2.262Z" transform="translate(-729.31 -407.57)"/>
      <path id="Tracé_7974" data-name="Tracé 7974" d="M752.01,575.086l-6.127,30.784,30.561,58.074,36.369-5.546s-23.449-41.907-28.381-46.611c-2.549-2.437-1.3-3.2-.484-4.164.6-.7,1.333-1.359,1.354-2.263l1.679-25.875Z" transform="translate(-716.053 -366.372)"/>
      <path id="Tracé_7975" data-name="Tracé 7975" d="M784.441,580.125s.1,11.927,6.245,18.087c-4.945,2.582-16.132,76.087-16.132,76.087l38.022,2.805s12.787-75.214,13.212-79.612,3.22-14.235-4.4-22.532S784.441,580.125,784.441,580.125Z" transform="translate(-671.344 -370.782)"/>
      <path id="Tracé_7976" data-name="Tracé 7976" d="M844.857,598.177c-3.125,4.182-4.76,17.616-6.488,22.366-2,5.518-4.154,17.24-5.712,20.308a1.444,1.444,0,0,0-.064,1.182l3.1,8.469a1.539,1.539,0,0,0,.312.514l32.268,42.355c.665.734-1.264,4.044-2.135,4.563-7.494,4.463-36.527,14.11-41.131,14.463-.985.077-3.9.325-7.99.65l-.827.067c-18.056,1.428-69.267-3.319-68.581-6.339,1.07-4.719.187-17.452,2.521-28.647,3.128-15,3.1-25.1,11.561-33.528s6.475-25.476,4.732-31.652-7.755-46.447,2.3-52.16c7.842-4.453,21.759-10.872,25.837-11.855.972-.235,1.643-4.215,1.295-5.1-2.352-6-10.012-26.582-7.361-33.814,3.12-8.5,22.29-19.269,34.139-15.827,11.366,3.3,12.669,15.2,12.756,16.17a1.216,1.216,0,0,1,.005.138l-.182,11.748a1.516,1.516,0,0,0,.21.791l3.6,6.109a1.531,1.531,0,0,1-.53,2.081l-3.079,1.971a1.564,1.564,0,0,0-.74,1.346l.187,8.628a5.428,5.428,0,0,1-1.4,3.732,1.72,1.72,0,0,1-1,.512l-11.276,1.64s-3.688,2.7,0,4.735c6.826,3.76,23.577,9.329,27.083,13.705C852.986,573.387,851.711,589,844.857,598.177Z" transform="translate(-713.364 -493.537)"/>
      <g id="Groupe_513" data-name="Groupe 513" transform="translate(48.69 135.803)">
        <path id="Tracé_7977" data-name="Tracé 7977" d="M824.4,559.425l3.583,9.943-74.733-8.64s3.739-8.63,2.416-13.3S824.4,559.425,824.4,559.425Z" transform="translate(-753.252 -546.598)" fill="#5f5d5d"/>
        <path id="Tracé_7978" data-name="Tracé 7978" d="M781.568,571.765c.74,24.437,14.181,56.6,14.181,56.6s-17.25-.663-16.715-7.793-19.971-47.678-3.6-63.94S781.568,571.765,781.568,571.765Z" transform="translate(-728.567 -538.241)" fill="#5f5d5d"/>
        <path id="Tracé_7979" data-name="Tracé 7979" d="M788.341,571.854c-13.083,23.93-16.306,56.68-16.306,56.68s-18.993-2.378-14.33-9.286,4.725-48.548,32.36-62.784S788.341,571.854,788.341,571.854Z" transform="translate(-747.456 -537.244)" fill="#5f5d5d"/>
      </g>
      <path id="Tracé_7980" data-name="Tracé 7980" d="M783.937,613.62s1.464,3.657-.978,6.4-5.613,7.31-3.171,9.137,43.448,5.254,43.448,5.254l10.739-4.341s3.905-3.883.489-4.11-29.535-4.571-31.245-5.713-2.2-8.909-2.2-8.909Z" transform="translate(-664.552 -309.844)"/>
      <path id="Tracé_7981" data-name="Tracé 7981" d="M791.459,551.633l-28.449,9.685,5.1,36.448-26.38.628-7.5-50.164,56.578-28.5Z" transform="translate(-734.228 -452.686)"/>
      <path id="Tracé_7982" data-name="Tracé 7982" d="M789.468,520.821l42.1,18.742,38.778-18.147,9.6,22.779-56.3,27.9L778.7,548.117Z" transform="translate(-664.88 -450.991)"/>
      <path id="Tracé_7983" data-name="Tracé 7983" d="M791.782,607.85s-1.884,5.221.4,7.279.916,5.9-.491,7.8c-1.116,1.5-16.147,10.916-22.965,14.514a7.9,7.9,0,0,1-6.091.5l-9.1-3.018s-.9-7.072,1.513-7.714,19.185-9.024,20.2-10.237-.118-8.006-.118-8.006Z" transform="translate(-704.379 -315.282)"/>
    </g>
    <path id="Tracé_7931" data-name="Tracé 7931" d="M238.15,943.535s.745-39.88-4.992-102.1c-6.142-66.594-11.392-92.276-11.608-93.716a6.323,6.323,0,0,0-2.725-4.664l-2.807-1.547s4.661,31.445,10.86,100.406C230.45,881.653,232.6,943.96,232.6,943.96Z" transform="translate(1117.28 7008.128)" fill="url(#linear-gradient-2)"/>
    <g id="Groupe_464" data-name="Groupe 464" transform="translate(1144.157 7829.251)">
      <g id="Groupe_463" data-name="Groupe 463">
        <g id="Groupe_462" data-name="Groupe 462">
          <path id="Tracé_7932" data-name="Tracé 7932" d="M180.866,855.709s2.692,11.323,9.707,16.689c-1.616,1.313,5.2,84.055,5.2,84.055l38.188-2.389-4.572-88.179c-.232-4.491,2.494-8.725-6.305-16.048S180.866,855.709,180.866,855.709Z" transform="translate(-81.252 -657.396)"/>
          <g id="Groupe_461" data-name="Groupe 461">
            <g id="Groupe_460" data-name="Groupe 460" transform="translate(38.722)">
              <path id="Tracé_7933" data-name="Tracé 7933" d="M309.279,850.238v28.933L270.827,885l-9.471-14.076s-7,16.539-9.987,21.735C248.28,898.032,237.1,913,237.1,913l1.427,9.249,23.781,40.231s-39.475,15.722-44.233,15.262c-.893-.089-3.539-.323-7.257-.672l-.751-.071c-16.389-1.557-51.348-5.181-52.869-8.506-1.9-4.163,7.135-12.023,8.086-22.661s-.952-34.681,8.084-41.157,5.231-18.036,4.756-24.046,12.773-51.121,22.761-54.821,21-7.608,21-7.608-.852-27.643,3.427-35.04,18.926-13.516,28.913-8.43c7.025,3.578,9.107,10.941,9.72,14.995a10.4,10.4,0,0,1-.5,5l-2.972,8.456,2.445,7.158a1.882,1.882,0,0,1-1.5,2.468l-3.379.514-2.664,8.354a3.514,3.514,0,0,1-.168.621,4.52,4.52,0,0,1-5.14,2.664l-8.41-1.6s18.109,7.066,22.572,10.137c6.667,4.585,11.623,21.8,11.623,21.8Z" transform="translate(-156.935 -772.863)"/>
              <g id="Groupe_459" data-name="Groupe 459" transform="translate(17.812 118.785)">
                <path id="Tracé_7934" data-name="Tracé 7934" d="M226.288,840.9l1.427,9.249-63.78-18.824s4.743-6.995,4.389-11.288S226.288,840.9,226.288,840.9Z" transform="translate(-163.935 -819.546)" fill="#8e5800"/>
                <path id="Tracé_7935" data-name="Tracé 7935" d="M190.009,841.163c13.282,19.318,40.31,38.944,40.31,38.944s-13.555,7.491-16.852,1.5-40.1-29.071-36.03-49.768S190.009,841.163,190.009,841.163Z" transform="translate(-143.567 -811.798)" fill="#8e5800"/>
                <path id="Tracé_7936" data-name="Tracé 7936" d="M184.232,843.456c.4,23.147,12.224,53.928,12.224,53.928s-15.626-1.061-15.061-7.8-17.57-45.628-2.555-60.61S184.232,843.456,184.232,843.456Z" transform="translate(-150.126 -811.539)" fill="#8e5800"/>
              </g>
            </g>
            <path id="Tracé_7937" data-name="Tracé 7937" d="M225.049,853.314s-9.715,44.633-21.715,48.5c-6.7,2.158.6,2.992.6,2.992s-25.246,44.936-26.42,63.2c-25.236,0-35.8,1.712-35.8,1.712s14.672-69.612,34.038-86.159c5.868-24.536,9.974-37.658,9.974-37.658Z" transform="translate(-141.717 -660.063)"/>
            <path id="Tracé_7938" data-name="Tracé 7938" d="M148.195,893.972s1.331,3.453-.885,6.041-5.1,6.9-2.885,8.628,39.488,4.962,39.488,4.962l9.761-4.1s3.55-3.667.443-3.883-26.842-4.313-28.394-5.392-2-8.412-2-8.412Z" transform="translate(-138.768 -589.139)"/>
            <path id="Tracé_7939" data-name="Tracé 7939" d="M190.744,890.066s1.331,3.45-.885,6.041-5.1,6.9-2.886,8.626,39.488,4.962,39.488,4.962l9.761-4.1s3.55-3.666.445-3.88-26.844-4.316-28.4-5.394-2-8.412-2-8.412Z" transform="translate(-73.051 -595.177)"/>
          </g>
        </g>
        <path id="Tracé_7940" data-name="Tracé 7940" d="M216.539,809.2a7.4,7.4,0,0,0,2.827-.723s.593-2.7,1.827-3.229,9.354-5.086,10.913-5.046c1.31.033,6.532.84,7.438,1.618s1.211,2.565-1.529,3.392c3.626.1,8.954,1.763,4.336,5.059,1.074.14,4.109.628,3.346,2.626-.72,1.888-4.46,2.086-4.46,2.086s2.369,1.056,2.071,2.506c-.285,1.387-2.527,2.069-3.265,2.13s-1.071,1.27-3.323,1.547c-2.285.282-11.829,2.509-13.478-.02s-6.735,1.089-6.735,1.089Z" transform="translate(-26.206 -730.645)"/>
        <path id="Tracé_7941" data-name="Tracé 7941" d="M217.651,826.11a7.381,7.381,0,0,0,2.715-1.054s.081-3.677,1.239-4.346,8.814-5.237,10.366-5.381c1.3-.122,6.588.056,7.585.723s1.524,2.4-1.092,3.549c3.613-.331,6.72,1.28,2.552,5.1,1.081.013,3.608-.4,3.1,1.672a4.708,4.708,0,0,1-1.229,2.54s2.481.766,2.366,2.242c-.107,1.41-2.247,2.354-2.972,2.5s-.9,1.387-3.1,1.929c-2.234.552-11.425,3.9-13.379,1.58s-6.55,1.883-6.55,1.883Z" transform="translate(-24.438 -707.331)"/>
      </g>
      <path id="Tracé_7942" data-name="Tracé 7942" d="M204.483,800.657l30.429,36.216,37.553,10.754.841,23.318-56.05-13.864L183.042,801.33Z" transform="translate(-77.891 -729.935)"/>
    </g>
  </g>
</svg>
