<svg xmlns="http://www.w3.org/2000/svg" width="75.934" height="75.433" viewBox="0 0 75.934 75.433">
  <g id="Groupe_493" data-name="Groupe 493" transform="translate(0 0)">
    <g id="Groupe_369" data-name="Groupe 369" transform="translate(0 0)">
      <path id="Tracé_7808" data-name="Tracé 7808" d="M.014.48H0v4.16A4.305,4.305,0,0,0,4.305,8.946H71.629a4.305,4.305,0,0,0,4.305-4.305V0Z" transform="translate(75.934 71.447) rotate(180)" fill="#695246"/>
      <path id="Tracé_7809" data-name="Tracé 7809" d="M75.934,0V3.986l-75.92.48H0V.625Z" transform="translate(75.934 75.433) rotate(180)" fill="#937567"/>
      <path id="Tracé_7810" data-name="Tracé 7810" d="M145.968,177.136a29.167,29.167,0,0,1,3.654,14.2c0,15.855-12.51,28.708-27.941,28.708S93.74,207.192,93.74,191.338a29.166,29.166,0,0,1,3.654-14.2,28.646,28.646,0,0,1,3.785-5.3,27.436,27.436,0,0,1,40.968-.04,28.7,28.7,0,0,1,3.821,5.342Z" transform="translate(-83.714 -162.63)" fill="#aa5b21"/>
      <path id="Tracé_7813" data-name="Tracé 7813" d="M148.694,194.4c12.319,0,22.305,10.26,22.305,22.917s-9.986,22.915-22.305,22.915-22.3-10.26-22.3-22.915S136.376,194.4,148.694,194.4Z" transform="translate(-110.742 -188.929)" fill="#cc6418"/>
      <path id="Tracé_7814" data-name="Tracé 7814" d="M181.408,236.84a15.608,15.608,0,1,1-15.5,15.608A15.553,15.553,0,0,1,181.408,236.84Z" transform="translate(-143.457 -224.061)" fill="#aa5b21"/>
      <path id="Tracé_7816" data-name="Tracé 7816" d="M5.61,0V3.28a1.8,1.8,0,0,1-1.8,1.8H0V0Z" transform="translate(13.048 62.501) rotate(180)" fill="#bc5e51"/>
      <path id="Tracé_7817" data-name="Tracé 7817" d="M0,0H5.646V5.085H0Z" transform="translate(18.694 62.501) rotate(180)" fill="#7f3d32"/>
      <path id="Tracé_7818" data-name="Tracé 7818" d="M0,0H5.646V5.085H0Z" transform="translate(24.341 62.501) rotate(180)" fill="#bc5e51"/>
      <path id="Tracé_7819" data-name="Tracé 7819" d="M0,0H5.648V5.085H0Z" transform="translate(29.989 62.501) rotate(180)" fill="#7f3d32"/>
      <path id="Tracé_7820" data-name="Tracé 7820" d="M0,0H5.646V5.085H0Z" transform="translate(35.636 62.501) rotate(180)" fill="#bc5e51"/>
      <path id="Tracé_7821" data-name="Tracé 7821" d="M0,0H5.646V5.085H0Z" transform="translate(41.282 62.501) rotate(180)" fill="#7f3d32"/>
      <path id="Tracé_7822" data-name="Tracé 7822" d="M0,0H5.646V5.085H0Z" transform="translate(46.929 62.501) rotate(180)" fill="#bc5e51"/>
      <path id="Tracé_7823" data-name="Tracé 7823" d="M0,0H5.646V5.085H0Z" transform="translate(52.575 62.501) rotate(180)" fill="#7f3d32"/>
      <path id="Tracé_7824" data-name="Tracé 7824" d="M0,0H5.646V5.085H0Z" transform="translate(58.222 62.501) rotate(180)" fill="#bc5e51"/>
      <path id="Tracé_7825" data-name="Tracé 7825" d="M0,0H5.646V5.085H0Z" transform="translate(63.868 62.501) rotate(180)" fill="#7f3d32"/>
      <path id="Tracé_7826" data-name="Tracé 7826" d="M4.965,0V5.085H1.8A1.8,1.8,0,0,1,0,3.28V0Z" transform="translate(68.832 62.501) rotate(180)" fill="#bc5e51"/>
      <rect id="Rectangle_25" data-name="Rectangle 25" width="5.152" transform="translate(75.894 71.192) rotate(-180)" fill="none"/>
      <path id="Tracé_7827" data-name="Tracé 7827" d="M0,0V3.842H.014l5.152-.033V0Z" transform="translate(75.934 74.808) rotate(180)" fill="#7b5e52"/>
      <path id="Tracé_7828" data-name="Tracé 7828" d="M5.166,4.193V.033H5.18L5.166,0,.014.033H0v4.16A4.305,4.305,0,0,0,4.305,8.5H9.471A4.305,4.305,0,0,1,5.166,4.193Z" transform="translate(75.934 70.999) rotate(180)" fill="#5d4a42"/>
      <path id="Tracé_7829" data-name="Tracé 7829" d="M98.906,191.338a29.166,29.166,0,0,1,3.654-14.2,28.646,28.646,0,0,1,3.785-5.3,27.6,27.6,0,0,1,17.919-9.081c-.851-.08-1.712-.124-2.583-.124a27.533,27.533,0,0,0-20.5,9.2,28.645,28.645,0,0,0-3.785,5.3,29.166,29.166,0,0,0-3.654,14.2c0,15.855,12.51,28.708,27.941,28.708.871,0,1.732-.043,2.583-.123-14.22-1.34-25.359-13.625-25.359-28.584Z" transform="translate(-83.715 -162.63)" fill="#935121"/>
      <g id="Groupe_367" data-name="Groupe 367" transform="translate(71.067 67.675) rotate(180)">
        <path id="Tracé_7830" data-name="Tracé 7830" d="M1.946,2.066H1.033A1.033,1.033,0,0,1,1.033,0h.913a1.033,1.033,0,1,1,0,2.066Z" fill="#f4f8fc"/>
        <path id="Tracé_7831" data-name="Tracé 7831" d="M14.125,2.066H1.033A1.033,1.033,0,1,1,1.033,0H14.125a1.033,1.033,0,0,1,0,2.066Z" transform="translate(4.358)" fill="#f4f8fc"/>
      </g>
    </g>
    <text id="_3" data-name="3" transform="translate(37.968 40.437)" fill="#804215" font-size="32" font-family="Rajdhani-Bold, Rajdhani" font-weight="700"><tspan x="-8.144" y="0">3</tspan></text>
  </g>
</svg>
